%YAML 1.1
%TAG !u! tag:unity3d.com,2011:
--- !u!114 &11400000
MonoBehaviour:
  m_ObjectHideFlags: 0
  m_PrefabParentObject: {fileID: 0}
  m_PrefabInternal: {fileID: 0}
  m_GameObject: {fileID: 0}
  m_Enabled: 1
  m_EditorHideFlags: 0
  m_Script: {fileID: 11500000, guid: 3c89761e7f10701438bb5dd0911bc98a, type: 3}
  m_Name: 2Card 8s
  m_EditorClassIdentifier: 
  value: 8
  suit: 1
  sprite: {fileID: 21300040, guid: bd3233fc8c1e5a941ac03f41a7eee295, type: 3}
